\relax 
\@writefile{toc}{\contentsline {section}{\numberline {1}The Example}{1}{}\protected@file@percent }
\@writefile{toc}{\contentsline {section}{\numberline {2}Writing the API Documentation}{1}{}\protected@file@percent }
\@writefile{toc}{\contentsline {subsection}{\numberline {2.1}API Creation Options}{1}{}\protected@file@percent }
\@writefile{toc}{\contentsline {subsection}{\numberline {2.2}About the documentation}{3}{}\protected@file@percent }
\@writefile{toc}{\contentsline {paragraph}{Paths}{3}{}\protected@file@percent }
\@writefile{toc}{\contentsline {paragraph}{Components}{3}{}\protected@file@percent }
\@writefile{toc}{\contentsline {paragraph}{Schemas}{3}{}\protected@file@percent }
\@writefile{toc}{\contentsline {paragraph}{Parameters}{4}{}\protected@file@percent }
\@writefile{toc}{\contentsline {paragraph}{Responses}{4}{}\protected@file@percent }
\@writefile{toc}{\contentsline {paragraph}{Requests}{4}{}\protected@file@percent }
\@writefile{toc}{\contentsline {paragraph}{Composition and Inheritance}{4}{}\protected@file@percent }
\@writefile{toc}{\contentsline {subsection}{\numberline {2.3}The example}{4}{}\protected@file@percent }
\@writefile{toc}{\contentsline {section}{\numberline {3}Creating the Server}{5}{}\protected@file@percent }
\@writefile{toc}{\contentsline {subsection}{\numberline {3.1}Generating the stub}{5}{}\protected@file@percent }
\@writefile{toc}{\contentsline {paragraph}{The Generated .ZIP}{5}{}\protected@file@percent }
\@writefile{toc}{\contentsline {subsection}{\numberline {3.2}Input}{6}{}\protected@file@percent }
\@writefile{toc}{\contentsline {paragraph}{Reading the Query Parameters}{6}{}\protected@file@percent }
\@writefile{toc}{\contentsline {paragraph}{Reading the Request Body}{6}{}\protected@file@percent }
\@writefile{toc}{\contentsline {subsection}{\numberline {3.3}Writing the logic}{6}{}\protected@file@percent }
\@writefile{toc}{\contentsline {subsubsection}{\numberline {3.3.1}Sum}{6}{}\protected@file@percent }
\@writefile{toc}{\contentsline {subsubsection}{\numberline {3.3.2}Factorial}{6}{}\protected@file@percent }
\@writefile{toc}{\contentsline {subsubsection}{\numberline {3.3.3}Recent}{7}{}\protected@file@percent }
\@writefile{toc}{\contentsline {section}{\numberline {4}Testing the Result}{8}{}\protected@file@percent }
\@writefile{toc}{\contentsline {paragraph}{Postman}{8}{}\protected@file@percent }
\@writefile{toc}{\contentsline {paragraph}{Swagger}{8}{}\protected@file@percent }
\gdef \@abspage@last{8}
